[
    {
        "Nama": "JIEXPO KEMAYORAN",
        "Tanggal": "24 Okt 2021",
        "Mulai": "14:00 WIB",
        "Selesai": "14:30 WIB",
        "Kuota": 150,
        "Sisa": 133,
        "Wilayah": "KOTA ADM. JAKARTA PUSAT",
        "Kecamatan": "KEMAYORAN",
        "Kelurahan": "GUNUNG SAHARI SELATAN",
        "Vaksin": "Pfizer",
        "Dosis": "second"
    },
    {
        "Nama": "RPTRA HARAPAN MULIA",
        "Tanggal": "28 Okt 2021",
        "Mulai": "08:00 WIB",
        "Selesai": "09:00 WIB",
        "Kuota": 30,
        "Sisa": 30,
        "Wilayah": "KOTA ADM. JAKARTA PUSAT",
        "Kecamatan": "KEMAYORAN",
        "Kelurahan": "HARAPAN MULIA",
        "Vaksin": "Pfizer",
        "Dosis": "second"
    },
    {
        "Nama": "SENTRA VAKSINASI DRIVE THRU WINGS PEDULI",
        "Tanggal": "30 Okt 2021",
        "Mulai": "16:00 WIB",
        "Selesai": "17:00 WIB",
        "Kuota": 12,
        "Sisa": 12,
        "Wilayah": "KOTA ADM. JAKARTA PUSAT",
        "Kecamatan": "KEMAYORAN",
        "Kelurahan": "KEBON KOSONG",
        "Vaksin": "Pfizer",
        "Dosis": "second"
    },
    {
        "Nama": "PUSKESMAS KECAMATAN CEMPAKA PUTIH",
        "Tanggal": "26 Okt 2021",
        "Mulai": "08:00 WIB",
        "Selesai": "09:00 WIB",
        "Kuota": 20,
        "Sisa": 20,
        "Wilayah": "KOTA ADM. JAKARTA PUSAT",
        "Kecamatan": "CEMPAKA PUTIH",
        "Kelurahan": "RAWASARI",
        "Vaksin": "Pfizer",
        "Dosis": "second"
    },
    {
        "Nama": "RSIJ CEMPAKA PUTIH",
        "Tanggal": "29 Okt 2021",
        "Mulai": "08:00 WIB",
        "Selesai": "09:00 WIB",
        "Kuota": 14,
        "Sisa": 2,
        "Wilayah": "KOTA ADM. JAKARTA PUSAT",
        "Kecamatan": "CEMPAKA PUTIH",
        "Kelurahan": "CEMPAKA PUTIH TIMUR",
        "Vaksin": "Moderna",
        "Dosis": "first"
    },
      {
        "Nama": "PUSKESMAS KELURAHAN PETOJO SELATAN",
        "Tanggal": "27 Okt 2021",
        "Mulai": "09:30 WIB",
        "Selesai": "10:30 WIB",
        "Kuota": 50,
        "Sisa": 48,
        "Wilayah": "KOTA ADM. JAKARTA PUSAT",
        "Kecamatan": "GAMBIR",
        "Kelurahan": "PETOJO SELATAN",
        "Vaksin": "AstraZeneca",
        "Dosis": "second"
      },
      {
        "Nama": "RPTRA MUSTIKA",
        "Tanggal": "25 Okt 2021",
        "Mulai": "08:00 WIB",
        "Selesai": "09:00 WIB",
        "Kuota": 25,
        "Sisa": 25,
        "Wilayah": "KOTA ADM. JAKARTA PUSAT",
        "Kecamatan": "GAMBIR",
        "Kelurahan": "CIDENG",
        "Vaksin": "AstraZeneca",
        "Dosis": "second"
      },
      {
        "Nama": "RSUD TARAKAN",
        "Tanggal": "29 Okt 2021",
        "Mulai": "08:00 WIB",
        "Selesai": "09:30 WIB",
        "Kuota": 25,
        "Sisa": 23,
        "Wilayah": "KOTA ADM. JAKARTA PUSAT",
        "Kecamatan": "GAMBIR",
        "Kelurahan": "CIDENG",
        "Vaksin": "Moderna",
        "Dosis": "second"
      },
      {
        "Nama": "RPTRA GONDANGDIA",
        "Tanggal": "27 Okt 2021",
        "Mulai": "10:00 WIB",
        "Selesai": "10:30 WIB",
        "Kuota": 50,
        "Sisa": 50,
        "Wilayah": "KOTA ADM. JAKARTA PUSAT",
        "Kecamatan": "MENTENG",
        "Kelurahan": "GONDANGDIA",
        "Vaksin": "CoronaVac/Sinovac",
        "Dosis": "first"
      },
      {
        "Nama": "RSIA BUNDA JAKARTA",
        "Tanggal": "28 Okt 2021",
        "Mulai": "09:00 WIB",
        "Selesai": "10:30 WIB",
        "Kuota": 50,
        "Sisa": 43,
        "Wilayah": "KOTA ADM. JAKARTA PUSAT",
        "Kecamatan": "MENTENG",
        "Kelurahan": "GONDANGDIA",
        "Vaksin": "Pfizer",
        "Dosis": "second"
      },
      {
        "Nama": "DPD PARTAI GOLKAR DKI JAKARTA",
        "Tanggal": "24 Okt 2021",
        "Mulai": "08:00 WIB",
        "Selesai": "09:00 WIB",
        "Kuota": 35,
        "Sisa": 35,
        "Wilayah": "KOTA ADM. JAKARTA PUSAT",
        "Kecamatan": "MENTENG",
        "Kelurahan": "MENTENG",
        "Vaksin": "Moderna",
        "Dosis": "first"
      },
      {
        "Nama": "GOR MANGGA DUA SELATAN",
        "Tanggal": "25 Okt 2021",
        "Mulai": "10:00 WIB",
        "Selesai": "11:00 WIB",
        "Kuota": 34,
        "Sisa": 34,
        "Wilayah": "KOTA ADM. JAKARTA PUSAT",
        "Kecamatan": "SAWAH BESAR",
        "Kelurahan": "MANGGA DUA SELATAN",
        "Vaksin": "CoronaVac/Sinovac",
        "Dosis": "second"
      },
      {
        "Nama": "PUSKESMAS KECAMATAN SENEN",
        "Tanggal": "29 Okt 2021",
        "Mulai": "08:00 WIB",
        "Selesai": "09:00 WIB",
        "Kuota": 34,
        "Sisa": 34,
        "Wilayah": "KOTA ADM. JAKARTA PUSAT",
        "Kecamatan": "SENEN",
        "Kelurahan": "KENARI",
        "Vaksin": "CoronaVac/Sinovac",
        "Dosis": "first"
      },
      {
        "Nama": "PUSKESMAS KELURAHAN PASEBAN",
        "Tanggal": "28 Okt 2021",
        "Mulai": "08:00 WIB",
        "Selesai": "09:30 WIB",
        "Kuota": 35,
        "Sisa": 35,
        "Wilayah": "KOTA ADM. JAKARTA PUSAT",
        "Kecamatan": "SENEN",
        "Kelurahan": "PASEBAN",
        "Vaksin": "CoronaVac/Sinovac",
        "Dosis": "first"
      },
      {
        "Nama": "GEDUNG JUDO KELAPA GADING",
        "Tanggal": "25 Okt 2021",
        "Mulai": "10:30 WIB",
        "Selesai": "12:00 WIB",
        "Kuota": 150,
        "Sisa": 123,
        "Wilayah": "KOTA ADM. JAKARTA UTARA",
        "Kecamatan": "KELAPA GADING",
        "Kelurahan": "KELAPA GADING TIMUR",
        "Vaksin": "Pfizer",
        "Dosis": "second"
      },
      {
        "Nama": "JAKARTA ISLAMIC CENTER (JIC)",
        "Tanggal": "25 Okt 2021",
        "Mulai": "09:00 WIB",
        "Selesai": "12:00 WIB",
        "Kuota": 60,
        "Sisa": 60,
        "Wilayah": "KOTA ADM. JAKARTA UTARA",
        "Kecamatan": "KOJA",
        "Kelurahan": "TUGU UTARA",
        "Vaksin": "Pfizer",
        "Dosis": "second"
      },
      {
        "Nama": "RS PELABUHAN",
        "Tanggal": "29 Okt 2021",
        "Mulai": "08:00 WIB",
        "Selesai": "10:00 WIB",
        "Kuota": 20,
        "Sisa": 20,
        "Wilayah": "KOTA ADM. JAKARTA UTARA",
        "Kecamatan": "KOJA",
        "Kelurahan": "TUGU UTARA",
        "Vaksin": "Pfizer",
        "Dosis": "second"
      },
      {
        "Nama": "RS DUTA INDAH",
        "Tanggal": "28 Okt 2021",
        "Mulai": "09:30 WIB",
        "Selesai": "10:30 WIB",
        "Kuota": 30,
        "Sisa": 19,
        "Wilayah": "KOTA ADM. JAKARTA UTARA",
        "Kecamatan": "PENJARINGAN",
        "Kelurahan": "PEJAGALAN",
        "Vaksin": "Pfizer",
        "Dosis": "first"
      },
      {
        "Nama": "RS PANTAI INDAH KAPUK",
        "Tanggal": "29 Okt 2021",
        "Mulai": "09:45 WIB",
        "Selesai": "10:30 WIB",
        "Kuota": 28,
        "Sisa": 13,
        "Wilayah": "KOTA ADM. JAKARTA UTARA",
        "Kecamatan": "PENJARINGAN",
        "Kelurahan": "KAPUK MUARA",
        "Vaksin": "Moderna",
        "Dosis": "first"
      },
      {
        "Nama": "RSUD TANJUNG PRIOK",
        "Tanggal": "26 Okt 2021",
        "Mulai": "09:00 WIB",
        "Selesai": "10:00 WIB",
        "Kuota": 30,
        "Sisa": 11,
        "Wilayah": "KOTA ADM. JAKARTA UTARA",
        "Kecamatan": "TANJUNG PRIOK",
        "Kelurahan": "KEBON BAWANG",
        "Vaksin": "Pfizer",
        "Dosis": "first"
      },
      {
        "Nama": "PUSKESMAS KECAMATAN CENGKARENG",
        "Tanggal": "28 Okt 2021",
        "Mulai": "09:00 WIB",
        "Selesai": "10:00 WIB",
        "Kuota": 70,
        "Sisa": 70,
        "Wilayah": "KOTA ADM. JAKARTA BARAT",
        "Kecamatan": "CENGKARENG",
        "Kelurahan": "CENGKARENG BARAT",
        "Vaksin": "CoronaVac/Sinovac",
        "Dosis": "first"
      },
      {
        "Nama": "PUSKESMAS KECAMATAN GROGOL PETAMBURAN",
        "Tanggal": "28 Okt 2021",
        "Mulai": "10:00 WIB",
        "Selesai": "10:30 WIB",
        "Kuota": 30,
        "Sisa": 30,
        "Wilayah": "KOTA ADM. JAKARTA BARAT",
        "Kecamatan": "GROGOL PETAMBURAN",
        "Kelurahan": "WIJAYA KUSUMA",
        "Vaksin": "Moderna",
        "Dosis": "first"
      },

      {
        "Nama": "RSUD KALIDERES",
        "Tanggal": "27 Okt 2021",
        "Mulai": "08:00 WIB",
        "Selesai": "09:00 WIB",
        "Kuota": 30,
        "Sisa": 27,
        "Wilayah": "KOTA ADM. JAKARTA BARAT",
        "Kecamatan": "KALIDERES",
        "Kelurahan": "PEGADUNGAN",
        "Vaksin": "CoronaVac/Sinovac",
        "Dosis": "first"
      },
      {
        "Nama": "RS PELNI",
        "Tanggal": "26 Okt 2021",
        "Mulai": "10:00 WIB",
        "Selesai": "11:00 WIB",
        "Kuota": 35,
        "Sisa": 0,
        "Wilayah": "KOTA ADM. JAKARTA BARAT",
        "Kecamatan": "PAL MERAH",
        "Kelurahan": "SLIPI",
        "Vaksin": "Moderna",
        "Dosis": "second"
      },
      {
        "Nama": "MALL TOWNSQUARE CILANDAK (CILANDAK TOWN SQUARE)",
        "Tanggal": "24 Okt 2021",
        "Mulai": "10:00 WIB",
        "Selesai": "11:00 WIB",
        "Kuota": 50,
        "Sisa": 10,
        "Wilayah": "KOTA ADM. JAKARTA SELATAN",
        "Kecamatan": "CILANDAK",
        "Kelurahan": "CILANDAK BARAT",
        "Vaksin": "AstraZeneca",
        "Dosis": "second"
      },
      {
        "Nama": "PUSKESMAS KECAMATAN JAGAKARSA",
        "Tanggal": "28 Okt 2021",
        "Mulai": "09:30 WIB",
        "Selesai": "10:00 WIB",
        "Kuota": 15,
        "Sisa": 0,
        "Wilayah": "KOTA ADM. JAKARTA SELATAN",
        "Kecamatan": "JAGAKARSA",
        "Kelurahan": "JAGAKARSA",
        "Vaksin": "Pfizer",
        "Dosis": "second"
      },
      {
        "Nama": "RPTRA TAMAN SAWO",
        "Tanggal": "25 Okt 2021",
        "Mulai": "09:00 WIB",
        "Selesai": "10:00 WIB",
        "Kuota": 50,
        "Sisa": 0,
        "Wilayah": "KOTA ADM. JAKARTA SELATAN",
        "Kecamatan": "KEBAYORAN BARU",
        "Kelurahan": "CIPETE UTARA",
        "Vaksin": "CoronaVac/Sinovac",
        "Dosis": "first"
      },
      {
        "Nama": "RUMAH DINAS KANTOR CAMAT KEBAYORAN LAMA",
        "Tanggal": "25 Okt 2021",
        "Mulai": "09:00 WIB",
        "Selesai": "09:30 WIB",
        "Kuota": 25,
        "Sisa": 0,
        "Wilayah": "KOTA ADM. JAKARTA SELATAN",
        "Kecamatan": "KEBAYORAN LAMA",
        "Kelurahan": "KEBAYORAN LAMA SELATAN",
        "Vaksin": "CoronaVac/Sinovac",
        "Dosis": "first"
      },
      {
        "Nama": "APARTEMENT KEMANG VILLAGE",
        "Tanggal": "28 Okt 2021",
        "Mulai": "09:00 WIB",
        "Selesai": "10:00 WIB",
        "Kuota": 34,
        "Sisa": 33,
        "Wilayah": "KOTA ADM. JAKARTA SELATAN",
        "Kecamatan": "MAMPANG PRAPATAN",
        "Kelurahan": "BANGKA",
        "Vaksin": "CoronaVac/Sinovac",
        "Dosis": "second"
      },
      {
        "Nama": "PUSKESMAS KECAMATAN PESANGGRAHAN",
        "Tanggal": "29 Okt 2021",
        "Mulai": "15:30 WIB",
        "Selesai": "18:30 WIB",
        "Kuota": 20,
        "Sisa": 16,
        "Wilayah": "KOTA ADM. JAKARTA SELATAN",
        "Kecamatan": "PESANGGRAHAN",
        "Kelurahan": "PETUKANGAN UTARA",
        "Vaksin": "CoronaVac/Sinovac",
        "Dosis": "second"
      },
      {
        "Nama": "PLAZA SEMANGGI",
        "Tanggal": "27 Okt 2021",
        "Mulai": "13:00 WIB",
        "Selesai": "14:30 WIB",
        "Kuota": 50,
        "Sisa": 41,
        "Wilayah": "KOTA ADM. JAKARTA SELATAN",
        "Kecamatan": "SETIABUDI",
        "Kelurahan": "KARET SEMANGGI",
        "Vaksin": "AstraZeneca",
        "Dosis": "second"
      },
      {
        "Nama": "SENTRA VAKSIN SOSRO",
        "Tanggal": "25 Okt 2021",
        "Mulai": "10:00 WIB",
        "Selesai": "12:00 WIB",
        "Kuota": 30,
        "Sisa": 0,
        "Wilayah": "KOTA ADM. JAKARTA TIMUR",
        "Kecamatan": "CAKUNG",
        "Kelurahan": "UJUNG MENTENG",
        "Vaksin": "AstraZeneca",
        "Dosis": "second"
      },
      {
        "Nama": "UNIVERSITAS DARMA PERSADA",
        "Tanggal": "28 Okt 2021",
        "Mulai": "11:00 WIB",
        "Selesai": "12:00 WIB",
        "Kuota": 50,
        "Sisa": 50,
        "Wilayah": "KOTA ADM. JAKARTA TIMUR",
        "Kecamatan": "DUREN SAWIT",
        "Kelurahan": "PONDOK KELAPA",
        "Vaksin": "CoronaVac/Sinovac",
        "Dosis": "first"
      },
      {
        "Nama": "PUSKESMAS KECAMATAN KRAMAT JATI",
        "Tanggal": "25 Okt 2021",
        "Mulai": "08:00 WIB",
        "Selesai": "09:00 WIB",
        "Kuota": 13,
        "Sisa": 13,
        "Wilayah": "KOTA ADM. JAKARTA TIMUR",
        "Kecamatan": "KRAMATJATI",
        "Kelurahan": "KRAMATJATI",
        "Vaksin": "AstraZeneca",
        "Dosis": "first"
      },
      {
        "Nama": "GELANGGANG REMAJA KECAMATAN MATRAMAN",
        "Tanggal": "27 Okt 2021",
        "Mulai": "08:00 WIB",
        "Selesai": "09:00 WIB",
        "Kuota": 45,
        "Sisa": 45,
        "Wilayah": "KOTA ADM. JAKARTA TIMUR",
        "Kecamatan": "MATRAMAN",
        "Kelurahan": "UTAN KAYU UTARA",
        "Vaksin": "CoronaVac/Sinovac",
        "Dosis": "second"
      },
      {
        "Nama": "GEDUNG GELANGGANG REMAJA PULOGADUNG",
        "Tanggal": "27 Okt 2021",
        "Mulai": "08:00 WIB",
        "Selesai": "09:00 WIB",
        "Kuota": 50,
        "Sisa": 44,
        "Wilayah": "KOTA ADM. JAKARTA TIMUR",
        "Kecamatan": "PULOGADUNG",
        "Kelurahan": "RAWAMANGUN",
        "Vaksin": "CoronaVac/Sinovac",
        "Dosis": "second"
      }
]